%YAML 1.1
%TAG !u! tag:unity3d.com,2011:
--- !u!78 &1
TagManager:
  serializedVersion: 2
  tags: []
  layers:
  - Default
  - TransparentFX
  - Ignore Raycast
  - 
  - Water
  - UI
  - 
  - 
  - 
  - 
  - 
  - 
  - 
  - 
  - 
  - 
  - 
  - 
  - 
  - 
  - 
  - 
  - 
  - 
  - 
  - 
  - 
  - 
  - 
  - 
  - 
  - 
  m_SortingLayers:
  - name: Default
    uniqueID: 0
    locked: 0
  - name: Row0
    uniqueID: 1391863255
    locked: 0
  - name: Row1
    uniqueID: 360064821
    locked: 0
  - name: Row2
    uniqueID: 3357532583
    locked: 0
  - name: Row3
    uniqueID: 4136455989
    locked: 0
  - name: Discard
    uniqueID: 2209379947
    locked: 0
  - name: Draw
    uniqueID: 555926491
    locked: 0
  - name: UI
    uniqueID: 4177291831
    locked: 0
